HW2/simulation/qsim/AC4.msim.vcd
$comment
	File created using the following command:
		vcd file AC4.msim.vcd -direction
$end
$date
	Sun Jan 05 15:59:54 2020
$end
$version
	ModelSim Version 10.1d
$end
$timescale
	1ps
$end
$scope module AC4_vlg_vec_tst $end
$var reg 1 ! clk $end
$var reg 1 " load $end
$var reg 1 # rst_n $end
$var reg 4 $ x_i [3:0] $end
$var wire 1 % done $end
$var wire 1 & overflow $end
$var wire 1 ' sum_o [3] $end
$var wire 1 ( sum_o [2] $end
$var wire 1 ) sum_o [1] $end
$var wire 1 * sum_o [0] $end
$var wire 1 + sampler $end
$scope module i1 $end
$var wire 1 , gnd $end
$var wire 1 - vcc $end
$var wire 1 . unknown $end
$var tri1 1 / devclrn $end
$var tri1 1 0 devpor $end
$var tri1 1 1 devoe $end
$var wire 1 2 overflow~output_o $end
$var wire 1 3 done~output_o $end
$var wire 1 4 sum_o[3]~output_o $end
$var wire 1 5 sum_o[2]~output_o $end
$var wire 1 6 sum_o[1]~output_o $end
$var wire 1 7 sum_o[0]~output_o $end
$var wire 1 8 x_i[1]~input_o $end
$var wire 1 9 x_i[0]~input_o $end
$var wire 1 : clk~input_o $end
$var wire 1 ; clk~inputclkctrl_outclk $end
$var wire 1 < load~input_o $end
$var wire 1 = inst2|inst3|inst3~0_combout $end
$var wire 1 > rst_n~input_o $end
$var wire 1 ? rst_n~inputclkctrl_outclk $end
$var wire 1 @ inst3|inst4|inst~q $end
$var wire 1 A inst|inst7|inst5|inst~0_combout $end
$var wire 1 B inst2|inst2|inst3~0_combout $end
$var wire 1 C inst3|inst3|inst~q $end
$var wire 1 D inst|inst7|inst7|inst~0_combout $end
$var wire 1 E x_i[2]~input_o $end
$var wire 1 F inst2|inst1|inst3~0_combout $end
$var wire 1 G inst3|inst2|inst~q $end
$var wire 1 H inst|inst|inst7|inst~0_combout $end
$var wire 1 I x_i[3]~input_o $end
$var wire 1 J inst2|inst|inst3~0_combout $end
$var wire 1 K inst2|inst|inst3~1_combout $end
$var wire 1 L inst3|inst|inst~q $end
$var wire 1 M inst|inst|inst7|inst~1_combout $end
$var wire 1 N inst4|inst1|inst~combout $end
$var wire 1 O inst4|inst|inst~q $end
$var wire 1 P inst4|inst5|inst~0_combout $end
$var wire 1 Q inst4|inst3|inst~q $end
$var wire 1 R inst4|inst4|inst~0_combout $end
$var wire 1 S inst4|inst2|inst~q $end
$var wire 1 T inst4|inst6|inst~combout $end
$upscope $end
$upscope $end
$enddefinitions $end
#0
$dumpvars
0!
0"
0#
b0 $
0%
0&
0*
0)
0(
0'
x+
0,
1-
x.
1/
10
11
02
03
04
05
06
07
08
09
0:
0;
0<
0=
0>
0?
0@
0A
0B
0C
0D
0E
0F
0G
0H
0I
1J
0K
0L
0M
0N
0O
1P
0Q
0R
0S
0T
$end
#20000
1!
1:
1;
0+
#40000
0!
0:
0;
1+
#60000
1!
1:
1;
0+
#80000
1#
1"
b1 $
0!
1>
1<
19
0:
1?
0;
1+
0P
1=
#100000
1!
1:
1;
0+
1@
1A
17
1*
#120000
b11 $
0"
b10 $
0!
09
18
0<
0:
0;
1+
1B
1P
#140000
1!
1:
1;
0+
1Q
1C
1R
0P
1D
0A
16
1)
1F
0B
#160000
b11 $
0!
19
0:
0;
1+
1A
0=
1B
#180000
1!
1:
1;
0+
1S
0Q
1G
0@
1P
0J
1H
0F
0A
1=
15
07
1(
0*
1K
0B
#200000
b111 $
b101 $
b100 $
0!
09
08
1E
0:
0;
1+
0D
1A
0=
1F
0F
1B
#220000
1!
1:
1;
0+
1Q
1L
0G
0R
0P
1N
0K
1J
0H
1F
14
05
1'
0(
1T
1M
1K
13
12
1%
1&
0M
02
0&
#240000
b0 $
0!
0E
0:
0;
1+
0F
#260000
1!
1:
1;
0+
0S
0Q
1O
0T
03
0%
#280000
0!
0:
0;
1+
#300000
1!
1:
1;
0+
#320000
0!
0:
0;
1+
#340000
1!
1:
1;
0+
#360000
0!
0:
0;
1+
#380000
1!
1:
1;
0+
#400000
1"
b10 $
b11 $
b111 $
0!
1<
19
18
1E
0:
0;
1+
0N
0K
1F
1=
1D
0A
0J
1H
1M
12
1&
#420000
1!
1:
1;
0+
0O
0L
1G
1@
1A
04
15
17
0'
1(
1*
0M
02
0&
#440000
0"
b101 $
b1 $
0!
0<
08
0E
0:
0;
1+
1P
1K
0F
0=
0A
0B
#460000
1!
1:
1;
0+
1Q
1L
0G
0C
0@
1R
0P
0K
1J
0H
1F
0D
1=
14
05
06
07
1'
0(
0)
0*
1M
1K
0F
12
1&
0M
02
0&
#480000
b101 $
0!
1E
0:
0;
1+
1F
#500000
1!
1:
1;
0+
1S
0Q
1G
1@
1P
0J
1H
0F
1A
0=
15
17
1(
1*
0K
1B
1M
12
1&
#520000
b100 $
b110 $
b10 $
0!
09
18
0E
0:
0;
1+
1=
1J
0H
1F
1K
0M
02
0&
#540000
1!
1:
1;
0+
1Q
1C
0R
0P
1N
1D
0A
16
1)
1T
0J
1H
0F
0B
13
1%
0K
1M
12
1&
#560000
b0 $
0!
08
0:
0;
1+
0D
1A
1J
0H
1F
1B
1K
0M
02
0&
#580000
1!
1:
1;
0+
0S
0Q
1O
0T
03
0%
#600000
0!
0:
0;
1+
#620000
1!
1:
1;
0+
#640000
1"
b1 $
b11 $
0!
1<
19
18
0:
0;
1+
0N
0K
0F
1D
0J
1H
1M
12
1&
#660000
1!
1:
1;
0+
0O
0L
0G
1J
0H
04
05
0'
0(
0M
02
0&
#680000
b1011 $
0"
b1001 $
0!
08
1I
0<
0:
0;
1+
0A
1K
1P
1F
0=
0B
#700000
1!
1:
1;
0+
1Q
1L
1G
0C
0@
1R
0P
0K
0J
1H
0F
0D
1=
14
15
06
07
1'
1(
0)
0*
1M
1K
1J
0H
1F
12
1&
0K
#720000
b1000 $
b0 $
0!
09
0I
0:
0;
1+
0=
1K
0M
02
0&
#740000
1!
1:
1;
0+
1S
0Q
1P
#760000
b1 $
0!
19
0:
0;
1+
1=
#780000
1!
1:
1;
0+
1Q
1@
0R
0P
1N
1A
0=
17
1*
1T
1B
13
1%
#800000
b0 $
0!
09
0:
0;
1+
0A
1=
0B
#820000
1!
1:
1;
0+
0S
0Q
1O
0T
03
0%
#840000
0!
0:
0;
1+
#860000
1!
1:
1;
0+
#880000
0!
0:
0;
1+
#900000
1!
1:
1;
0+
#920000
0!
0:
0;
1+
#940000
1!
1:
1;
0+
#960000
0!
0:
0;
1+
#980000
1!
1:
1;
0+
